//Maya ASCII 2012 scene
//Name: handDummy.ma
//Last modified: Mon, Mar 10, 2014 11:34:33 PM
//Codeset: 1252
requires maya "2012";
requires "stereoCamera" "10.0";
currentUnit -l centimeter -a degree -t pal;
fileInfo "application" "maya";
fileInfo "product" "Maya 2012";
fileInfo "version" "2012 x64";
fileInfo "cutIdentifier" "201109261240-811691";
fileInfo "osv" "Microsoft Windows 7 Business Edition, 64-bit Windows 7 Service Pack 1 (Build 7601)\n";
createNode transform -s -n "persp";
	setAttr ".v" no;
	setAttr ".t" -type "double3" 0.80542145292132228 1.4719785994690167 4.0499364770132225 ;
	setAttr ".r" -type "double3" -383.13835273647607 -356.19999999999953 -9.9611332468638403e-017 ;
	setAttr ".rp" -type "double3" 0 2.2204460492503131e-016 -3.3306690738754696e-016 ;
	setAttr ".rpt" -type "double3" -5.4406783667141088e-017 -3.4340375585334006e-016 
		-4.4490015141990187e-017 ;
createNode camera -s -n "perspShape" -p "persp";
	setAttr -k off ".v" no;
	setAttr ".fl" 34.999999999999979;
	setAttr ".coi" 4.5140745875524235;
	setAttr ".imn" -type "string" "persp";
	setAttr ".den" -type "string" "persp_depth";
	setAttr ".man" -type "string" "persp_mask";
	setAttr ".tp" -type "double3" 1.0069385319948196 -0.11006391269475527 0.12826278805732727 ;
	setAttr ".hc" -type "string" "viewSet -p %camera";
createNode transform -s -n "top";
	setAttr ".v" no;
	setAttr ".t" -type "double3" 0 100.1 0 ;
	setAttr ".r" -type "double3" -89.999999999999986 0 0 ;
createNode camera -s -n "topShape" -p "top";
	setAttr -k off ".v" no;
	setAttr ".rnd" no;
	setAttr ".coi" 100.1;
	setAttr ".ow" 30;
	setAttr ".imn" -type "string" "top";
	setAttr ".den" -type "string" "top_depth";
	setAttr ".man" -type "string" "top_mask";
	setAttr ".hc" -type "string" "viewSet -t %camera";
	setAttr ".o" yes;
createNode transform -s -n "front";
	setAttr ".v" no;
	setAttr ".t" -type "double3" 0 0 100.1 ;
createNode camera -s -n "frontShape" -p "front";
	setAttr -k off ".v" no;
	setAttr ".rnd" no;
	setAttr ".coi" 100.1;
	setAttr ".ow" 30;
	setAttr ".imn" -type "string" "front";
	setAttr ".den" -type "string" "front_depth";
	setAttr ".man" -type "string" "front_mask";
	setAttr ".hc" -type "string" "viewSet -f %camera";
	setAttr ".o" yes;
createNode transform -s -n "side";
	setAttr ".v" no;
	setAttr ".t" -type "double3" 100.1 0 0 ;
	setAttr ".r" -type "double3" 0 89.999999999999986 0 ;
createNode camera -s -n "sideShape" -p "side";
	setAttr -k off ".v" no;
	setAttr ".rnd" no;
	setAttr ".coi" 100.1;
	setAttr ".ow" 30;
	setAttr ".imn" -type "string" "side";
	setAttr ".den" -type "string" "side_depth";
	setAttr ".man" -type "string" "side_mask";
	setAttr ".hc" -type "string" "viewSet -s %camera";
	setAttr ".o" yes;
createNode transform -n "handle";
createNode nurbsCurve -n "ylShape" -p "handle";
	setAttr -k off ".v";
	setAttr ".ove" yes;
	setAttr ".ovc" 14;
	setAttr ".cc" -type "nurbsCurve" 
		1 17 0 no 3
		18 0 35.596760000000003 71.193520000000007 106.79113599999999 142.38875300000001
		 162.38875300000001 166.38875300000001 175.33302499999999 184.277297 188.277297 192.277297
		 201.22156899999999 210.165841 215.82269500000001 221.47954899999999 227.136403 232.79325800000001
		 236.79325800000001
		18
		0.0031571509072394412 0.0031484266131095828 0.0031571509072394412
		0.0031571509072394412 0.0031484266131095828 0.0031571509072394412
		0.0031571509072394412 0.0031484266131095828 0.0031571509072394412
		0.0031571509072394412 0.0031484266131095828 0.0031571509072394412
		0.0031571509072394412 0.0031484266131095828 0.0031571509072394412
		0.0031571509072394412 0.31148230473752492 0.0031571509072394412
		0.0031571509072394412 0.31148230473752492 0.064823926532122697
		0.0015569329257617214 0.96682013377432696 0.0015569329257617214
		0.0031571509072394412 0.31148230473752492 -0.058509624717643809
		0.0031571509072394412 0.31148230473752492 0.0031571509072394412
		0.064823926532122697 0.31148230473752492 0.0031571509072394412
		0.0015569329257617214 0.96682013377432696 0.0015569329257617214
		-0.058509624717643809 0.31148230473752492 0.0031571509072394412
		0.0031571509072394412 0.31148230473752492 0.064823926532122697
		0.064823926532122697 0.31148230473752492 0.0031571509072394412
		0.0031571509072394412 0.31148230473752492 -0.058509624717643809
		-0.058509624717643809 0.31148230473752492 0.0031571509072394412
		0.0031571509072394412 0.31148230473752492 0.0031571509072394412
		;
createNode nurbsCurve -n "xlShape" -p "handle";
	setAttr -k off ".v";
	setAttr ".ove" yes;
	setAttr ".ovc" 13;
	setAttr ".cc" -type "nurbsCurve" 
		1 17 0 no 3
		18 0 35.596760000000003 71.193520000000007 106.79113599999999 142.38875300000001
		 162.38875300000001 166.38875300000001 175.33302499999999 184.277297 188.277297 192.277297
		 201.22156899999999 210.165841 215.82269500000001 221.47954899999999 227.136403 232.79325800000001
		 236.79325800000001
		18
		0 0 0
		0 0 0
		0 0 0
		0 0 0
		0 0 0
		0.30833387812441598 6.84638741531387e-017 0
		0.30833387812441598 6.84638741531387e-017 0.061666775624883138
		0.96757005644120331 2.1484371091977723e-016 0
		0.30833387812441598 6.84638741531387e-017 -0.061666775624883138
		0.30833387812441598 6.84638741531387e-017 0
		0.30833387812441598 -0.061666775624883111 0
		0.96757005644120331 2.1484371091977723e-016 0
		0.30833387812441598 0.061666775624883222 0
		0.30833387812441598 6.84638741531387e-017 0.061666775624883138
		0.30833387812441598 -0.061666775624883111 0
		0.30833387812441598 6.84638741531387e-017 -0.061666775624883138
		0.30833387812441598 0.061666775624883222 0
		0.30833387812441598 6.84638741531387e-017 0
		;
createNode nurbsCurve -n "zShape" -p "handle";
	setAttr -k off ".v";
	setAttr ".ove" yes;
	setAttr ".ovc" 6;
	setAttr ".cc" -type "nurbsCurve" 
		1 17 0 no 3
		18 0 35.596760000000003 71.193520000000007 106.79113599999999 142.38875300000001
		 162.38875300000001 166.38875300000001 175.33302499999999 184.277297 188.277297 192.277297
		 201.22156899999999 210.165841 215.82269500000001 221.47954899999999 227.136403 232.79325800000001
		 236.79325800000001
		18
		0 0 0
		0 0 0
		0 0 0
		0 0 0
		0 0 0
		0 6.84638741531387e-017 0.30833387812441598
		0 -0.061666775624883111 0.30833387812441598
		0 2.1484371091977723e-016 0.96757005644120331
		0 0.061666775624883222 0.30833387812441598
		0 6.84638741531387e-017 0.30833387812441598
		0.061666775624883138 6.84638741531387e-017 0.30833387812441598
		0 2.1484371091977723e-016 0.96757005644120331
		-0.061666775624883138 6.84638741531387e-017 0.30833387812441598
		0 -0.061666775624883111 0.30833387812441598
		0.061666775624883138 6.84638741531387e-017 0.30833387812441598
		0 0.061666775624883222 0.30833387812441598
		-0.061666775624883138 6.84638741531387e-017 0.30833387812441598
		0 6.84638741531387e-017 0.30833387812441598
		;
createNode mesh -n "handShape" -p "handle";
	setAttr -k off ".v";
	setAttr ".vir" yes;
	setAttr ".vif" yes;
	setAttr ".uvst[0].uvsn" -type "string" "map1";
	setAttr -s 113 ".uvst[0].uvsp[0:112]" -type "float2" 0.375 0 0.375 0.25
		 0.375 0.5 0.375 0.75 0.375 1 0.125 0 0.125 0.25 0.27284303 0.25 0.375 0.35215694
		 0.27284303 0 0.375 0.89784306 0.48811629 0.25 0.48811626 0.35215694 0.48811629 0.5
		 0.48811629 0.75 0.48811629 0.89784312 0.48811629 0 0.48811629 1 0.375 0 0.48811629
		 0 0.48811629 0.25 0.375 0.25 0.48811626 0.35215694 0.375 0.35215694 0.375 0.5 0.48811629
		 0.5 0.48811629 0.75 0.375 0.75 0.375 0.89784306 0.48811629 0.89784312 0.48811629
		 1 0.375 1 0.625 0 0.727157 0 0.727157 0.25 0.625 0.25 0.27284303 0 0.27284303 0.25
		 0.125 0 0.125 0.25 0.875 0 0.875 0.25 0.625 0.35215694 0.625 0.5 0.625 0.75 0.625
		 0.89784306 0.625 1 0.375 0 0.625 0 0.625 0.25 0.375 0.25 0.625 0.5 0.375 0.5 0.625
		 0.75 0.375 0.75 0.625 1 0.375 1 0.875 0 0.875 0.25 0.125 0 0.125 0.25 0.375 0 0.625
		 0 0.625 0.25 0.375 0.25 0.625 0.37576953 0.375 0.37576953 0.375 0.5 0.625 0.5 0.625
		 0.75 0.375 0.75 0.375 0.8742305 0.625 0.8742305 0.625 1 0.375 1 0.75076956 0 0.75076956
		 0.25 0.24923047 0 0.24923047 0.25 0.125 0 0.125 0.25 0.875 0 0.875 0.25 0.375 0 0.625
		 0 0.625 0.25 0.375 0.25 0.375 0.25 0.625 0.25 0.625 0.5 0.375 0.5 0.5 0.625 0.625
		 0.60713339 0.625 0.75 0.375 0.75 0.5 0.75 0.375 1 0.625 0 0.875 0 0.875 0.14286657
		 0.125 0 0.375 0 0.125 0.25 0.625 0 0.375 0 0.625 0.25 0.375 0.25 0.375 0 0.625 0
		 0.625 0.25 0.375 0.25 0.625 1 0.875 0.25;
	setAttr ".cuvs" -type "string" "map1";
	setAttr ".dcc" -type "string" "Ambient+Diffuse";
	setAttr ".covm[0]"  0 1 1;
	setAttr ".cdvm[0]"  0 1 1;
	setAttr -s 17 ".pt";
	setAttr ".pt[7:10]" -type "float3" 0.012756925 0 -0.024230691  0.015090335 
		0 0  0.015090335 0 0  0.012756925 0 -0.024230691 ;
	setAttr ".pt[20:23]" -type "float3" 0 0 -0.024230691  0 0 -0.024230691  
		0 0 -0.088786133  0 0 -0.088786133 ;
	setAttr ".pt[25]" -type "float3" 0 0 -0.058275387 ;
	setAttr ".pt[28]" -type "float3" 0 0 -0.059068635 ;
	setAttr ".pt[44]" -type "float3" 0.0055738082 0.027202129 0 ;
	setAttr ".pt[46:49]" -type "float3" 0 0 -0.10996878  0 0 -0.088786133  0 
		0 -0.088786133  0 0 -0.10996878 ;
	setAttr ".pt[54:55]" -type "float3" 0.020513278 0 0.0071203923  0.020513278 
		0 0.0071203923 ;
	setAttr -s 73 ".vt[0:72]"  0.03203395 -0.098200828 0.29249525 0.03203395 0.12635401 0.29249525
		 0.03203395 0.10657714 -0.29249525 0.03203395 -0.10199583 -0.29249525 0.03203395 0.19427666 0.021881476
		 0.03203395 -0.1223269 0.021881476 0.25410697 0.12635401 0.3402403 0.27506578 0.20858347 0.062177002
		 0.24029312 0.10657715 -0.3402403 0.24029312 -0.10199583 -0.3402403 0.27506581 -0.1223269 0.06217701
		 0.25410697 -0.098200828 0.3402403 0.27231708 -0.24813792 0.36744037 1.18063378 -0.14340487 0.43965343
		 0.27231708 0.14340487 0.36744037 1.18063378 0.14340487 0.43965343 0.27231708 0.12095921 -0.36744037
		 1.12689888 0.12095921 -0.5 0.27231708 -0.11575967 -0.36744037 1.12689888 -0.11575967 -0.5
		 0.30665937 0.22049335 0.047655363 0.30665937 -0.16687213 0.047655363 1.27231705 -0.066316389 0.091372192
		 1.27231705 0.22049335 0.091372192 0.72478217 0.14340487 0.42741901 0.72478211 0.2367308 0.078108422
		 0.67154378 0.12095921 -0.45766899 0.67154378 -0.11575967 -0.45766899 0.72478217 -0.066316389 0.07810843
		 0.72478217 -0.24813792 0.42741901 1.19410145 -0.089045852 -0.31666511 1.75743759 -0.15526497 -0.42078197
		 1.17739034 0.12230751 -0.37284362 1.85632265 -0.051093698 -0.5014962 1.14027274 0.078337669 -0.52722502
		 1.79732275 -0.10633004 -0.64506727 1.15698373 -0.13301569 -0.47104651 1.69843769 -0.21050119 -0.56435299
		 1.20459878 -0.1182166 0.44320351 1.90939093 -0.14037189 0.51606584 1.20459878 0.11221494 0.44320351
		 1.96673834 0.049619526 0.51009768 1.20557046 0.12804642 -0.29900321 1.91743159 0.014703542 -0.30371884
		 1.22011828 -0.12479448 -0.21137854 1.86945426 -0.14525238 -0.24085817 2.03254652 0.079489022 0.10050363
		 1.29128444 0.18261302 0.087776579 1.29128444 -0.056605309 0.087776579 1.97519934 -0.13722676 0.10647182
		 0.53610128 -0.31530172 0.44254607 0.75362986 -0.088312738 0.4567768 0.50049144 -0.24116865 0.69570285
		 0.592058 -0.013927031 0.65564466 0.24090049 -0.17963645 0.40753382 0.24897152 0.032831442 0.39769554
		 0.27597573 -0.25021401 0.4077183 0.70695496 -0.0089846589 0.44719061 0.88450933 -0.43673256 0.61848515
		 0.98974532 -0.20390812 0.55066657 0.97381806 -0.11984003 0.78648305 0.89187348 -0.36266759 0.87158281
		 1.059552431 -0.46681634 0.70086014 1.14982247 -0.24052903 0.64929646 1.21066058 -0.22755095 0.80647737
		 1.11175871 -0.43296108 0.8558268 0.46839535 -0.18195108 0.42507273 0.43866253 -0.051915828 0.42728159
		 0.61130506 0.10325429 0.4468658 0.83842719 -0.091455303 0.7430048 0.85526007 -0.17040604 0.54238552
		 0.7483772 -0.37673622 0.61717153 0.7387948 -0.29747021 0.80744898;
	setAttr -s 127 ".ed[0:126]"  0 11 0 1 6 0 2 8 0 3 9 0 0 1 0 1 4 0 2 3 0
		 3 5 0 4 2 0 5 0 0 4 5 1 5 10 0 7 4 0 6 7 0 7 8 0 8 9 0 9 10 0 10 11 0 11 6 0 12 29 0
		 14 24 0 16 26 0 18 27 0 12 14 0 13 15 0 14 20 0 15 23 0 16 18 0 17 19 0 18 21 0 19 22 0
		 20 16 0 21 12 0 20 21 0 22 13 0 21 28 0 23 17 0 22 23 0 23 25 0 24 15 0 25 20 0 24 25 0
		 26 17 0 25 26 0 27 19 0 26 27 0 28 22 0 27 28 0 29 13 0 28 29 0 29 24 0 30 31 0 32 33 0
		 34 35 0 36 37 0 30 32 0 31 33 0 32 34 0 33 35 0 34 36 0 35 37 0 36 30 0 37 31 0 38 39 0
		 40 41 0 42 43 0 44 45 0 38 40 0 39 41 0 40 47 0 41 46 0 42 44 0 43 45 0 44 48 0 45 49 0
		 46 43 0 47 42 0 46 47 0 48 38 0 47 48 0 49 39 0 48 49 0 49 46 0 50 51 0 52 53 0 54 55 0
		 56 66 0 50 52 0 51 53 0 52 54 0 53 55 0 54 56 0 55 68 0 56 50 0 57 51 0 50 71 0 51 70 0
		 58 59 0 53 69 0 59 60 0 52 72 0 61 60 0 58 61 0 58 62 0 59 63 0 62 63 0 60 64 0 63 64 0
		 61 65 0 65 64 0 62 65 0 57 67 0 66 57 0 67 54 0 66 67 0 68 57 0 67 68 0 66 50 0 68 53 0
		 69 60 0 70 59 0 69 70 0 71 58 0 70 71 0 72 61 0 71 72 0 72 69 0;
	setAttr -s 64 ".fc[0:63]" -type "polyFaces" 
		f 4 0 18 -2 -5
		mu 0 4 0 16 11 1
		f 4 1 13 12 -6
		mu 0 4 1 11 12 8
		f 4 2 15 -4 -7
		mu 0 4 2 13 14 3
		f 4 11 17 -1 -10
		mu 0 4 10 15 17 4
		f 4 9 4 5 10
		mu 0 4 9 0 1 7
		f 4 7 -11 8 6
		mu 0 4 5 9 7 6
		f 4 3 16 -12 -8
		mu 0 4 3 14 15 10
		f 4 -13 14 -3 -9
		mu 0 4 8 12 13 2
		f 6 -14 -19 -18 -17 -16 -15
		mu 0 6 12 11 17 15 14 13
		f 4 19 50 -21 -24
		mu 0 4 18 19 20 21
		f 4 20 41 40 -26
		mu 0 4 21 20 22 23
		f 4 21 45 -23 -28
		mu 0 4 24 25 26 27
		f 4 35 49 -20 -33
		mu 0 4 28 29 30 31
		f 4 -35 37 -27 -25
		mu 0 4 32 33 34 35
		f 4 32 23 25 33
		mu 0 4 36 18 21 37
		f 4 29 -34 31 27
		mu 0 4 38 36 37 39
		f 4 22 47 -36 -30
		mu 0 4 27 26 29 28
		f 4 -38 -31 -29 -37
		mu 0 4 34 33 40 41
		f 4 -41 43 -22 -32
		mu 0 4 23 22 25 24
		f 4 39 26 38 -42
		mu 0 4 20 35 42 22
		f 4 -44 -39 36 -43
		mu 0 4 25 22 42 43
		f 4 -46 42 28 -45
		mu 0 4 26 25 43 44
		f 4 -48 44 30 -47
		mu 0 4 29 26 44 45
		f 4 -50 46 34 -49
		mu 0 4 30 29 45 46
		f 4 -51 48 24 -40
		mu 0 4 20 19 32 35
		f 4 51 56 -53 -56
		mu 0 4 47 48 49 50
		f 4 52 58 -54 -58
		mu 0 4 50 49 51 52
		f 4 53 60 -55 -60
		mu 0 4 52 51 53 54
		f 4 54 62 -52 -62
		mu 0 4 54 53 55 56
		f 4 -63 -61 -59 -57
		mu 0 4 48 57 58 49
		f 4 61 55 57 59
		mu 0 4 59 47 50 60
		f 4 63 68 -65 -68
		mu 0 4 61 62 63 64
		f 4 64 70 77 -70
		mu 0 4 64 63 65 66
		f 4 65 72 -67 -72
		mu 0 4 67 68 69 70
		f 4 81 80 -64 -79
		mu 0 4 71 72 73 74
		f 4 -81 82 -71 -69
		mu 0 4 62 75 76 63
		f 4 78 67 69 79
		mu 0 4 77 61 64 78
		f 4 -78 75 -66 -77
		mu 0 4 66 65 68 67
		f 4 73 -80 76 71
		mu 0 4 79 77 78 80
		f 4 66 74 -82 -74
		mu 0 4 70 69 72 71
		f 4 -83 -75 -73 -76
		mu 0 4 76 75 81 82
		f 4 105 107 -110 -111
		mu 0 4 83 84 85 86
		f 4 84 90 -86 -90
		mu 0 4 87 88 89 90
		f 3 116 115 111
		mu 0 3 91 92 93
		f 3 86 117 -94
		mu 0 3 94 95 96
		f 4 -95 -116 118 -89
		mu 0 4 97 98 99 88
		f 4 93 87 89 91
		mu 0 4 100 101 87 102
		f 4 83 96 123 -96
		mu 0 4 101 97 103 104
		f 4 88 98 121 -97
		mu 0 4 97 88 105 103
		f 4 -85 100 126 -99
		mu 0 4 88 87 106 105
		f 4 -88 95 125 -101
		mu 0 4 87 101 104 106
		f 4 97 104 -106 -104
		mu 0 4 107 108 84 83
		f 4 99 106 -108 -105
		mu 0 4 108 109 85 84
		f 4 -102 108 109 -107
		mu 0 4 109 110 86 85
		f 4 -103 103 110 -109
		mu 0 4 110 107 83 86
		f 3 -112 -113 114
		mu 0 3 91 93 95
		f 4 -114 -115 -87 -92
		mu 0 4 90 91 95 94
		f 4 85 92 -117 113
		mu 0 4 90 89 92 91
		f 4 -118 112 94 -84
		mu 0 4 96 95 93 111
		f 3 -119 -93 -91
		mu 0 3 88 99 112
		f 4 -122 119 -100 -121
		mu 0 4 103 105 109 108
		f 4 -124 120 -98 -123
		mu 0 4 104 103 108 107
		f 4 -126 122 102 -125
		mu 0 4 106 104 107 110
		f 4 -127 124 101 -120
		mu 0 4 105 106 110 109;
	setAttr ".cd" -type "dataPolyComponent" Index_Data Edge 0 ;
	setAttr ".cvd" -type "dataPolyComponent" Index_Data Vertex 0 ;
	setAttr ".hfd" -type "dataPolyComponent" Index_Data Face 0 ;
createNode lightLinker -s -n "lightLinker1";
	setAttr -s 3 ".lnk";
	setAttr -s 3 ".slnk";
createNode displayLayerManager -n "layerManager";
createNode displayLayer -n "defaultLayer";
createNode renderLayerManager -n "renderLayerManager";
createNode renderLayer -n "defaultRenderLayer";
	setAttr ".g" yes;
createNode script -n "sceneConfigurationScriptNode";
	setAttr ".b" -type "string" "playbackOptions -min 1 -max 25 -ast 1 -aet 48 ";
	setAttr ".st" 6;
createNode blinn -n "blinn1";
	setAttr ".c" -type "float3" 0.87804991 0.76794082 0.51097888 ;
	setAttr ".ic" -type "float3" 0.083999999 0.021 0 ;
	setAttr ".sc" -type "float3" 0 0.081544213 0.11381704 ;
createNode shadingEngine -n "blinn1SG";
	setAttr ".ihi" 0;
	setAttr ".ro" yes;
createNode materialInfo -n "materialInfo1";
select -ne :time1;
	setAttr ".o" 1;
	setAttr ".unw" 1;
select -ne :renderPartition;
	setAttr -s 3 ".st";
select -ne :initialShadingGroup;
	setAttr ".ro" yes;
select -ne :initialParticleSE;
	setAttr ".ro" yes;
select -ne :defaultShaderList1;
	setAttr -s 3 ".s";
select -ne :postProcessList1;
	setAttr -s 2 ".p";
select -ne :defaultRenderingList1;
select -ne :renderGlobalsList1;
select -ne :defaultRenderGlobals;
	setAttr ".fs" 1;
	setAttr ".ef" 10;
select -ne :hardwareRenderGlobals;
	setAttr ".ctrs" 256;
	setAttr ".btrs" 512;
select -ne :defaultHardwareRenderGlobals;
	setAttr ".fn" -type "string" "im";
	setAttr ".res" -type "string" "ntsc_4d 646 485 1.333";
relationship "link" ":lightLinker1" ":initialShadingGroup.message" ":defaultLightSet.message";
relationship "link" ":lightLinker1" ":initialParticleSE.message" ":defaultLightSet.message";
relationship "link" ":lightLinker1" "blinn1SG.message" ":defaultLightSet.message";
relationship "shadowLink" ":lightLinker1" ":initialShadingGroup.message" ":defaultLightSet.message";
relationship "shadowLink" ":lightLinker1" ":initialParticleSE.message" ":defaultLightSet.message";
relationship "shadowLink" ":lightLinker1" "blinn1SG.message" ":defaultLightSet.message";
connectAttr "layerManager.dli[0]" "defaultLayer.id";
connectAttr "renderLayerManager.rlmi[0]" "defaultRenderLayer.rlid";
connectAttr "blinn1.oc" "blinn1SG.ss";
connectAttr "handShape.iog" "blinn1SG.dsm" -na;
connectAttr "blinn1SG.msg" "materialInfo1.sg";
connectAttr "blinn1.msg" "materialInfo1.m";
connectAttr "blinn1SG.pa" ":renderPartition.st" -na;
connectAttr "blinn1.msg" ":defaultShaderList1.s" -na;
connectAttr "defaultRenderLayer.msg" ":defaultRenderingList1.r" -na;
// End of handDummy.ma
